Testing 1 shms with size of 16MB ...
Double checking configuration ...
number of shm: 1, size of shm: 16
rm -rf *.o
rm -rf writer_sysv reader_sysv
rm -rf writer_mmap reader_mmap
Writer: 1x 16MB native memory test: 0.037982 seconds
Writer: 1x 16MB shared memory test: 0.036751 seconds
Reader: 1x 16MB native memory test: 0.038675 seconds
Reader: 1x 16MB shared memory test: 0.036757 seconds
Testing 1 shms with size of 32MB ...
Double checking configuration ...
number of shm: 1, size of shm: 32
rm -rf *.o
rm -rf writer_sysv reader_sysv
rm -rf writer_mmap reader_mmap
Writer: 1x 32MB native memory test: 0.077242 seconds
Writer: 1x 32MB shared memory test: 0.073914 seconds
Reader: 1x 32MB native memory test: 0.079576 seconds
Reader: 1x 32MB shared memory test: 0.072750 seconds
Testing 1 shms with size of 64MB ...
Double checking configuration ...
number of shm: 1, size of shm: 64
rm -rf *.o
rm -rf writer_sysv reader_sysv
rm -rf writer_mmap reader_mmap
Writer: 1x 64MB native memory test: 0.156752 seconds
Writer: 1x 64MB shared memory test: 0.147717 seconds
Reader: 1x 64MB native memory test: 0.155799 seconds
Reader: 1x 64MB shared memory test: 0.145465 seconds
Testing 1 shms with size of 128MB ...
Double checking configuration ...
number of shm: 1, size of shm: 128
rm -rf *.o
rm -rf writer_sysv reader_sysv
rm -rf writer_mmap reader_mmap
Writer: 1x 128MB native memory test: 0.311007 seconds
Writer: 1x 128MB shared memory test: 0.295603 seconds
Reader: 1x 128MB native memory test: 0.312635 seconds
Reader: 1x 128MB shared memory test: 0.290787 seconds
Testing 1 shms with size of 256MB ...
Double checking configuration ...
number of shm: 1, size of shm: 256
rm -rf *.o
rm -rf writer_sysv reader_sysv
rm -rf writer_mmap reader_mmap
Writer: 1x 256MB native memory test: 0.621583 seconds
Writer: 1x 256MB shared memory test: 0.591226 seconds
Reader: 1x 256MB native memory test: 0.620753 seconds
Reader: 1x 256MB shared memory test: 0.581643 seconds
Testing 2 shms with size of 16MB ...
Double checking configuration ...
number of shm: 2, size of shm: 16
rm -rf *.o
rm -rf writer_sysv reader_sysv
rm -rf writer_mmap reader_mmap
Writer: 2x 16MB native memory test: 0.036805 seconds
Writer: 2x 16MB shared memory test: 0.036397 seconds
Reader: 2x 16MB native memory test: 0.039070 seconds
Reader: 2x 16MB shared memory test: 0.038238 seconds
Testing 2 shms with size of 32MB ...
Double checking configuration ...
number of shm: 2, size of shm: 32
rm -rf *.o
rm -rf writer_sysv reader_sysv
rm -rf writer_mmap reader_mmap
Writer: 2x 32MB native memory test: 0.078875 seconds
Writer: 2x 32MB shared memory test: 0.073920 seconds
Reader: 2x 32MB native memory test: 0.080069 seconds
Reader: 2x 32MB shared memory test: 0.073269 seconds
Testing 2 shms with size of 64MB ...
Double checking configuration ...
number of shm: 2, size of shm: 64
rm -rf *.o
rm -rf writer_sysv reader_sysv
rm -rf writer_mmap reader_mmap
Writer: 2x 64MB native memory test: 0.154757 seconds
Writer: 2x 64MB shared memory test: 0.148812 seconds
Reader: 2x 64MB native memory test: 0.157503 seconds
Reader: 2x 64MB shared memory test: 0.146991 seconds
Testing 2 shms with size of 128MB ...
Double checking configuration ...
number of shm: 2, size of shm: 128
rm -rf *.o
rm -rf writer_sysv reader_sysv
rm -rf writer_mmap reader_mmap
Writer: 2x 128MB native memory test: 0.311196 seconds
Writer: 2x 128MB shared memory test: 0.296846 seconds
Reader: 2x 128MB native memory test: 0.312510 seconds
Reader: 2x 128MB shared memory test: 0.293379 seconds
Testing 2 shms with size of 256MB ...
Double checking configuration ...
number of shm: 2, size of shm: 256
rm -rf *.o
rm -rf writer_sysv reader_sysv
rm -rf writer_mmap reader_mmap
Writer: 2x 256MB native memory test: 0.621663 seconds
Writer: 2x 256MB shared memory test: 0.594708 seconds
Reader: 2x 256MB native memory test: 0.622698 seconds
Reader: 2x 256MB shared memory test: 0.588448 seconds
Testing 4 shms with size of 16MB ...
Double checking configuration ...
number of shm: 4, size of shm: 16
rm -rf *.o
rm -rf writer_sysv reader_sysv
rm -rf writer_mmap reader_mmap
Writer: 4x 16MB native memory test: 0.037780 seconds
Writer: 4x 16MB shared memory test: 0.036579 seconds
Reader: 4x 16MB native memory test: 0.039765 seconds
Reader: 4x 16MB shared memory test: 0.037113 seconds
Testing 4 shms with size of 32MB ...
Double checking configuration ...
number of shm: 4, size of shm: 32
rm -rf *.o
rm -rf writer_sysv reader_sysv
rm -rf writer_mmap reader_mmap
Writer: 4x 32MB native memory test: 0.078820 seconds
Writer: 4x 32MB shared memory test: 0.074250 seconds
Reader: 4x 32MB native memory test: 0.080554 seconds
Reader: 4x 32MB shared memory test: 0.073822 seconds
Testing 4 shms with size of 64MB ...
Double checking configuration ...
number of shm: 4, size of shm: 64
rm -rf *.o
rm -rf writer_sysv reader_sysv
rm -rf writer_mmap reader_mmap
Writer: 4x 64MB native memory test: 0.156125 seconds
Writer: 4x 64MB shared memory test: 0.148935 seconds
Reader: 4x 64MB native memory test: 0.161605 seconds
Reader: 4x 64MB shared memory test: 0.147252 seconds
Testing 4 shms with size of 128MB ...
Double checking configuration ...
number of shm: 4, size of shm: 128
rm -rf *.o
rm -rf writer_sysv reader_sysv
rm -rf writer_mmap reader_mmap
Writer: 4x 128MB native memory test: 0.310498 seconds
Writer: 4x 128MB shared memory test: 0.296749 seconds
Reader: 4x 128MB native memory test: 0.316677 seconds
Reader: 4x 128MB shared memory test: 0.294772 seconds
Testing 4 shms with size of 256MB ...
Double checking configuration ...
number of shm: 4, size of shm: 256
rm -rf *.o
rm -rf writer_sysv reader_sysv
rm -rf writer_mmap reader_mmap
Writer: 4x 256MB native memory test: 0.620151 seconds
Writer: 4x 256MB shared memory test: 0.593920 seconds
Reader: 4x 256MB native memory test: 0.626678 seconds
Reader: 4x 256MB shared memory test: 0.590731 seconds
Testing 8 shms with size of 16MB ...
Double checking configuration ...
number of shm: 8, size of shm: 16
rm -rf *.o
rm -rf writer_sysv reader_sysv
rm -rf writer_mmap reader_mmap
Writer: 8x 16MB native memory test: 0.038133 seconds
Writer: 8x 16MB shared memory test: 0.036679 seconds
Reader: 8x 16MB native memory test: 0.044346 seconds
Reader: 8x 16MB shared memory test: 0.037469 seconds
Testing 8 shms with size of 32MB ...
Double checking configuration ...
number of shm: 8, size of shm: 32
rm -rf *.o
rm -rf writer_sysv reader_sysv
rm -rf writer_mmap reader_mmap
Writer: 8x 32MB native memory test: 0.078524 seconds
Writer: 8x 32MB shared memory test: 0.074270 seconds
Reader: 8x 32MB native memory test: 0.082178 seconds
Reader: 8x 32MB shared memory test: 0.074415 seconds
Testing 8 shms with size of 64MB ...
Double checking configuration ...
number of shm: 8, size of shm: 64
rm -rf *.o
rm -rf writer_sysv reader_sysv
rm -rf writer_mmap reader_mmap
Writer: 8x 64MB native memory test: 0.156349 seconds
Writer: 8x 64MB shared memory test: 0.148523 seconds
Reader: 8x 64MB native memory test: 0.168137 seconds
Reader: 8x 64MB shared memory test: 0.148948 seconds
Testing 8 shms with size of 128MB ...
Double checking configuration ...
number of shm: 8, size of shm: 128
rm -rf *.o
rm -rf writer_sysv reader_sysv
rm -rf writer_mmap reader_mmap
Writer: 8x 128MB native memory test: 0.311120 seconds
Writer: 8x 128MB shared memory test: 0.297399 seconds
Reader: 8x 128MB native memory test: 0.323813 seconds
Reader: 8x 128MB shared memory test: 0.300644 seconds
Testing 8 shms with size of 256MB ...
Double checking configuration ...
number of shm: 8, size of shm: 256
rm -rf *.o
rm -rf writer_sysv reader_sysv
rm -rf writer_mmap reader_mmap
Writer: 8x 256MB native memory test: 0.619990 seconds
Writer: 8x 256MB shared memory test: 0.593160 seconds
Reader: 8x 256MB native memory test: 0.642104 seconds
Reader: 8x 256MB shared memory test: 0.613184 seconds
Testing 10 shms with size of 16MB ...
Double checking configuration ...
number of shm: 10, size of shm: 16
rm -rf *.o
rm -rf writer_sysv reader_sysv
rm -rf writer_mmap reader_mmap
Writer: 10x 16MB native memory test: 0.037932 seconds
Writer: 10x 16MB shared memory test: 0.036566 seconds
Reader: 10x 16MB native memory test: 0.041455 seconds
Reader: 10x 16MB shared memory test: 0.037103 seconds
Testing 10 shms with size of 32MB ...
Double checking configuration ...
number of shm: 10, size of shm: 32
rm -rf *.o
rm -rf writer_sysv reader_sysv
rm -rf writer_mmap reader_mmap
Writer: 10x 32MB native memory test: 0.078261 seconds
Writer: 10x 32MB shared memory test: 0.074274 seconds
Reader: 10x 32MB native memory test: 0.081793 seconds
Reader: 10x 32MB shared memory test: 0.074020 seconds
Testing 10 shms with size of 64MB ...
Double checking configuration ...
number of shm: 10, size of shm: 64
rm -rf *.o
rm -rf writer_sysv reader_sysv
rm -rf writer_mmap reader_mmap
Writer: 10x 64MB native memory test: 0.156322 seconds
Writer: 10x 64MB shared memory test: 0.148181 seconds
Reader: 10x 64MB native memory test: 0.168317 seconds
Reader: 10x 64MB shared memory test: 0.155623 seconds
Testing 10 shms with size of 128MB ...
Double checking configuration ...
number of shm: 10, size of shm: 128
rm -rf *.o
rm -rf writer_sysv reader_sysv
rm -rf writer_mmap reader_mmap
Writer: 10x 128MB native memory test: 0.310842 seconds
Writer: 10x 128MB shared memory test: 0.296501 seconds
Reader: 10x 128MB native memory test: 0.325904 seconds
Reader: 10x 128MB shared memory test: 0.309956 seconds
Testing 10 shms with size of 256MB ...
Double checking configuration ...
number of shm: 10, size of shm: 256
rm -rf *.o
rm -rf writer_sysv reader_sysv
rm -rf writer_mmap reader_mmap
Writer: 10x 256MB native memory test: 0.619852 seconds
Writer: 10x 256MB shared memory test: 0.591490 seconds
Reader: 10x 256MB native memory test: 0.653839 seconds
Reader: 10x 256MB shared memory test: 0.645135 seconds
Testing 16 shms with size of 16MB ...
Double checking configuration ...
number of shm: 16, size of shm: 16
rm -rf *.o
rm -rf writer_sysv reader_sysv
rm -rf writer_mmap reader_mmap
Writer: 16x 16MB native memory test: 0.037889 seconds
Writer: 16x 16MB shared memory test: 0.036585 seconds
Reader: 16x 16MB native memory test: 0.050834 seconds
Reader: 16x 16MB shared memory test: 0.041766 seconds
Testing 16 shms with size of 32MB ...
Double checking configuration ...
number of shm: 16, size of shm: 32
rm -rf *.o
rm -rf writer_sysv reader_sysv
rm -rf writer_mmap reader_mmap
Writer: 16x 32MB native memory test: 0.079316 seconds
Writer: 16x 32MB shared memory test: 0.074157 seconds
Reader: 16x 32MB native memory test: 0.102424 seconds
Reader: 16x 32MB shared memory test: 0.081514 seconds
Testing 16 shms with size of 64MB ...
Double checking configuration ...
number of shm: 16, size of shm: 64
rm -rf *.o
rm -rf writer_sysv reader_sysv
rm -rf writer_mmap reader_mmap
Writer: 16x 64MB native memory test: 0.155846 seconds
Writer: 16x 64MB shared memory test: 0.148088 seconds
Reader: 16x 64MB native memory test: 0.176063 seconds
Reader: 16x 64MB shared memory test: 0.155683 seconds
Testing 16 shms with size of 128MB ...
Double checking configuration ...
number of shm: 16, size of shm: 128
rm -rf *.o
rm -rf writer_sysv reader_sysv
rm -rf writer_mmap reader_mmap
Writer: 16x 128MB native memory test: 0.310082 seconds
Writer: 16x 128MB shared memory test: 0.295912 seconds
Reader: 16x 128MB native memory test: 0.382618 seconds
Reader: 16x 128MB shared memory test: 0.310101 seconds
Testing 16 shms with size of 256MB ...
Double checking configuration ...
number of shm: 16, size of shm: 256
rm -rf *.o
rm -rf writer_sysv reader_sysv
rm -rf writer_mmap reader_mmap
Writer: 16x 256MB native memory test: 0.620661 seconds
Writer: 16x 256MB shared memory test: 0.591532 seconds
Reader: 16x 256MB native memory test: 0.715686 seconds
Reader: 16x 256MB shared memory test: 0.623065 seconds
Testing 20 shms with size of 16MB ...
Double checking configuration ...
number of shm: 20, size of shm: 16
rm -rf *.o
rm -rf writer_sysv reader_sysv
rm -rf writer_mmap reader_mmap
Writer: 20x 16MB native memory test: 0.037842 seconds
Writer: 20x 16MB shared memory test: 0.036661 seconds
Reader: 20x 16MB native memory test: 0.059796 seconds
Reader: 20x 16MB shared memory test: 0.044113 seconds
Testing 20 shms with size of 32MB ...
Double checking configuration ...
number of shm: 20, size of shm: 32
rm -rf *.o
rm -rf writer_sysv reader_sysv
rm -rf writer_mmap reader_mmap
Writer: 20x 32MB native memory test: 0.078832 seconds
Writer: 20x 32MB shared memory test: 0.074145 seconds
Reader: 20x 32MB native memory test: 0.104265 seconds
Reader: 20x 32MB shared memory test: 0.084559 seconds
Testing 20 shms with size of 64MB ...
Double checking configuration ...
number of shm: 20, size of shm: 64
rm -rf *.o
rm -rf writer_sysv reader_sysv
rm -rf writer_mmap reader_mmap
Writer: 20x 64MB native memory test: 0.156490 seconds
Writer: 20x 64MB shared memory test: 0.148485 seconds
Reader: 20x 64MB native memory test: 0.223067 seconds
Reader: 20x 64MB shared memory test: 0.160824 seconds
Testing 20 shms with size of 128MB ...
Double checking configuration ...
number of shm: 20, size of shm: 128
rm -rf *.o
rm -rf writer_sysv reader_sysv
rm -rf writer_mmap reader_mmap
Writer: 20x 128MB native memory test: 0.310942 seconds
Writer: 20x 128MB shared memory test: 0.296172 seconds
Reader: 20x 128MB native memory test: 0.398397 seconds
Reader: 20x 128MB shared memory test: 0.306269 seconds
Testing 20 shms with size of 256MB ...
Double checking configuration ...
number of shm: 20, size of shm: 256
rm -rf *.o
rm -rf writer_sysv reader_sysv
rm -rf writer_mmap reader_mmap
Writer: 20x 256MB native memory test: 0.623121 seconds
Writer: 20x 256MB shared memory test: 0.592234 seconds
Reader: 20x 256MB native memory test: 0.746768 seconds
Reader: 20x 256MB shared memory test: 0.629986 seconds
Testing 32 shms with size of 16MB ...
Double checking configuration ...
number of shm: 32, size of shm: 16
rm -rf *.o
rm -rf writer_sysv reader_sysv
rm -rf writer_mmap reader_mmap
Writer: 32x 16MB native memory test: 0.037696 seconds
Writer: 32x 16MB shared memory test: 0.036687 seconds
Reader: 32x 16MB native memory test: 0.059169 seconds
Reader: 32x 16MB shared memory test: 0.044757 seconds
Testing 32 shms with size of 32MB ...
Double checking configuration ...
number of shm: 32, size of shm: 32
rm -rf *.o
rm -rf writer_sysv reader_sysv
rm -rf writer_mmap reader_mmap
Writer: 32x 32MB native memory test: 0.078121 seconds
Writer: 32x 32MB shared memory test: 0.074166 seconds
Reader: 32x 32MB native memory test: 0.123740 seconds
Reader: 32x 32MB shared memory test: 0.091307 seconds
Testing 32 shms with size of 64MB ...
Double checking configuration ...
number of shm: 32, size of shm: 64
rm -rf *.o
rm -rf writer_sysv reader_sysv
rm -rf writer_mmap reader_mmap
Writer: 32x 64MB native memory test: 0.155748 seconds
Writer: 32x 64MB shared memory test: 0.148394 seconds
Reader: 32x 64MB native memory test: 0.201473 seconds
Reader: 32x 64MB shared memory test: 0.178722 seconds
Testing 32 shms with size of 128MB ...
Double checking configuration ...
number of shm: 32, size of shm: 128
rm -rf *.o
rm -rf writer_sysv reader_sysv
rm -rf writer_mmap reader_mmap
Writer: 32x 128MB native memory test: 0.311186 seconds
Writer: 32x 128MB shared memory test: 0.296603 seconds
Reader: 32x 128MB native memory test: 0.488988 seconds
Reader: 32x 128MB shared memory test: 0.362229 seconds
Testing 32 shms with size of 256MB ...
Double checking configuration ...
number of shm: 32, size of shm: 256
rm -rf *.o
rm -rf writer_sysv reader_sysv
rm -rf writer_mmap reader_mmap
Writer: 32x 256MB native memory test: 0.621017 seconds
Writer: 32x 256MB shared memory test: 0.592526 seconds
Reader: 32x 256MB native memory test: 0.834891 seconds
Reader: 32x 256MB shared memory test: 0.786455 seconds
Testing 40 shms with size of 16MB ...
Double checking configuration ...
number of shm: 40, size of shm: 16
rm -rf *.o
rm -rf writer_sysv reader_sysv
rm -rf writer_mmap reader_mmap
Writer: 40x 16MB native memory test: 0.037601 seconds
Writer: 40x 16MB shared memory test: 0.036588 seconds
Reader: 40x 16MB native memory test: 0.051928 seconds
Reader: 40x 16MB shared memory test: 0.045610 seconds
Testing 40 shms with size of 32MB ...
Double checking configuration ...
number of shm: 40, size of shm: 32
rm -rf *.o
rm -rf writer_sysv reader_sysv
rm -rf writer_mmap reader_mmap
Writer: 40x 32MB native memory test: 0.078639 seconds
Writer: 40x 32MB shared memory test: 0.074240 seconds
Reader: 40x 32MB native memory test: 0.114641 seconds
Reader: 40x 32MB shared memory test: 0.101600 seconds
Testing 40 shms with size of 64MB ...
Double checking configuration ...
number of shm: 40, size of shm: 64
rm -rf *.o
rm -rf writer_sysv reader_sysv
rm -rf writer_mmap reader_mmap
Writer: 40x 64MB native memory test: 0.155843 seconds
Writer: 40x 64MB shared memory test: 0.148216 seconds
Reader: 40x 64MB native memory test: 0.204942 seconds
Reader: 40x 64MB shared memory test: 0.223335 seconds
Testing 40 shms with size of 128MB ...
Double checking configuration ...
number of shm: 40, size of shm: 128
rm -rf *.o
rm -rf writer_sysv reader_sysv
rm -rf writer_mmap reader_mmap
Writer: 40x 128MB native memory test: 0.311069 seconds
Writer: 40x 128MB shared memory test: 0.296996 seconds
Reader: 40x 128MB native memory test: 0.479880 seconds
Reader: 40x 128MB shared memory test: 0.404182 seconds
Testing 40 shms with size of 256MB ...
Double checking configuration ...
number of shm: 40, size of shm: 256
rm -rf *.o
rm -rf writer_sysv reader_sysv
rm -rf writer_mmap reader_mmap
Writer: 40x 256MB native memory test: 0.620599 seconds
Writer: 40x 256MB shared memory test: 0.592626 seconds
Reader: 40x 256MB native memory test: 1.125883 seconds
Reader: 40x 256MB shared memory test: 0.887852 seconds
